12.3 An hypothesis test example | Tutorials for BIOL202: Introduction to Biostatistics
…
In the above code chunk, we:

assign our output to a new object called “dull_distribution”

We changed the “reps” argument for the rep_slice_sample function to 10^{5} (all other arguments stay the same).

We use the count function to tally the number of observations belonging to each of the two categories in the “direction” variable

We then filter the output from our sampling to the rows with the “direction” variable equal to “counter_clockwise”

Let’s look at the resulting object:

null_distribution

## # A tibble: 100,000 × 3
## # Groups:   replicate [100,000]
##    replicate direction             n
##        <int> <chr>             <int>
##  1         1 counter_clockwise    11
##  2         2 counter_clockwise     9
##  3         3 counter_clockwise     8
##  4         4 counter_clockwise    11
##  5         5 counter_clockwise    13
##  6         6 counter_clockwise     9
##  7         7 counter_clockwise     9
##  8         8 counter_clockwise    12
##  9         9 counter_clockwise     6
## 10        10 counter_clockwise     9
## # … with 99,990 more rows
…
