18.2 Least-squares regression analysis | Tutorials for BIOL202: Introduction to Biostatistics
…
Before we do anything else (e.g. explore the results of the regression), we need to first check the assumptions!

To get the residuals, which are required to check the assumptions, you first need to run the augment function from the broom package on the untidy regression object, as this will allow us to easily access the residuals.

biomass.lm.augment <- biomass.lm %>%
  broom::augment()

This produces a tibble, in which one of the variables, called “.resid”, houses the residuals that we’re after.

Let’s have a look:

biomass.lm.augment

## # A tibble: 161 × 8
##    biomassStability nSpecies .fitted .resid    .hat .sigma   .cooksd .std.resid
##               <dbl>    <dbl>   <dbl>  <dbl>   <dbl>  <dbl>     <dbl>      <dbl>
##  1             7.47        1   3.569 3.901  0.01177  1.707 0.03063       2.268 
##  2             6.74        1   3.569 3.171  0.01177  1.717 0.02024       1.844 
##  3             6.61        1   3.569 3.041  0.01177  1.718 0.01862       1.768 
##  4             6.4         1   3.569 2.831  0.01177  1.721 0.01613       1.646 
##  5             5.67        1   3.569 2.101  0.01177  1.727 0.008887      1.222 
##  6             5.26        1   3.569 1.691  0.01177  1.730 0.005758      0.9835
##  7             4.8         1   3.569 1.231  0.01177  1.733 0.003052      0.7160
##  8             4.4         1   3.569 0.8314 0.01177  1.734 0.001391      0.4834
##  9             4.4         1   3.569 0.8314 0.01177  1.734 0.001391      0.4834
## 10             4.26        1   3.569 0.6914 0.01177  1.735 0.0009622     0.4020
## # … with 151 more rows
…
