12.2 Paired t-test | Tutorials for BIOL202: Introduction to Biostatistics
…
            Tutorials for BIOL202: Introduction to Biostatistics

12.2 Paired t-test

We’ll use the blackbird dataset for this example.

For 13 red-winged blackbirds, measurements of antibodies were taken before and after implantation with testosterone. Thus, the same bird was measured twice. Clearly, these measurements are not independent, hence the need for a “paired” t-test.

Let’s first have a look at the blackbird dataset:

blackbird 

## # A tibble: 26 × 3
##    blackbird time   Antibody
##        <dbl> <chr>     <dbl>
##  1         1 Before    4.654
##  2         2 Before    3.912
##  3         3 Before    4.913
##  4         4 Before    4.500
##  5         5 Before    4.804
##  6         6 Before    4.883
##  7         7 Before    4.875
##  8         8 Before    4.779
##  9         9 Before    4.977
## 10        10 Before    4.868
## # … with 16 more rows
## # ℹ Use `print(n = ...)` to see more rows
…
Sometimes you may get data in wide format, in which case, for instance, we would have a column for the “Before” antibody measurements and another column for the “After” measurements.

It is always preferable to work with long-format (tidy) data.

Consult the following webpage for instructions on using the tidyr package for converting between wide and long data formats.

With our data in the preferred long format, we can proceed with our hypothesis test, but because the hypothesis focuses on the differences in the paired measurements, we need to calculate those first!

12.2.1 Calculate differences

Let’s remind ourselves how the data are stored:

blackbird

## # A tibble: 26 × 3
##    blackbird time   Antibody
##        <dbl> <chr>     <dbl>
##  1         1 Before    4.654
##  2         2 Before    3.912
##  3         3 Before    4.913
##  4         4 Before    4.500
##  5         5 Before    4.804
##  6         6 Before    4.883
##  7         7 Before    4.875
##  8         8 Before    4.779
##  9         9 Before    4.977
## 10        10 Before    4.868
## # … with 16 more rows
## # ℹ Use `print(n = ...)` to see more rows
…
