18.8 Data transformations | Tutorials for BIOL202: Introduction to Biostatistics
…
marine <- marine %>%
  mutate(logbiomass = log(biomassRatio))

Alternatively, you could use this (less tidy) code to get the same result:

marine$logbiomass <- log(marine$biomassRatio)

NOTE: 
If your variable includes zeros, then you’ll need to take extra steps, as described in the next section.

Let’s look at the tibble now:

marine

## # A tibble: 32 × 2
##    biomassRatio logbiomass
##           <dbl>      <dbl>
##  1         1.34    0.2927 
##  2         1.96    0.6729 
##  3         2.49    0.9123 
##  4         1.27    0.2390 
##  5         1.19    0.1740 
##  6         1.15    0.1398 
##  7         1.29    0.2546 
##  8         1.05    0.04879
##  9         1.1     0.09531
## 10         1.21    0.1906 
## # … with 22 more rows
…
That’s a bit better. We would now use this new variable in our analyses (assuming it meets the normality assumption).

18.8.3 Log bases

The log function calculates the natural logarithm (base e), but related functions permit any base:

?log

For instance, log10 uses log base 10:

marine <- marine %>%
  mutate(log10biomass = log10(biomassRatio))
marine

## # A tibble: 32 × 3
##    biomassRatio logbiomass log10biomass
##           <dbl>      <dbl>        <dbl>
##  1         1.34    0.2927       0.1271 
##  2         1.96    0.6729       0.2923 
##  3         2.49    0.9123       0.3962 
##  4         1.27    0.2390       0.1038 
##  5         1.19    0.1740       0.07555
##  6         1.15    0.1398       0.06070
##  7         1.29    0.2546       0.1106 
##  8         1.05    0.04879      0.02119
##  9         1.1     0.09531      0.04139
## 10         1.21    0.1906       0.08279
## # … with 22 more rows
…
?exp

Let’s try it, creating a new variable in the “marine” dataset so we can compare to the original “biomassRatio” variable:

First, back-transform the data and store the results in a new variable within the data frame:

marine <- marine %>%
  mutate(back_biomass = exp(logbiomass))

Now have a look at the first few lines of the tibble (selecting the original “biomassRatio” and new “back_biomass” variables) to see if the data values are identical, as they should be:

marine %>%
  select(biomassRatio, back_biomass)

## # A tibble: 32 × 2
##    biomassRatio back_biomass
##           <dbl>        <dbl>
##  1         1.34         1.34
##  2         1.96         1.96
##  3         2.49         2.49
##  4         1.27         1.27
##  5         1.19         1.19
##  6         1.15         1.15
##  7         1.29         1.29
##  8         1.05         1.05
##  9         1.1          1.1 
## 10         1.21         1.21
## # … with 22 more rows
…
First do the back-transform:

flowers <- flowers %>%
  mutate(flower_backtransformed = boot::inv.logit(logitfertile))

Or alternative code:

flowers$flower_backtransformed <- boot::inv.logit(flowers$logitfertile)

Let’s have a look at the original “propFertile” variable and the “flower_backtransformed” variable to check that they’re identical:

flowers %>%
  select(propFertile, flower_backtransformed)

## # A tibble: 30 × 2
##    propFertile flower_backtransformed
##          <dbl>                  <dbl>
##  1     0.06571                0.06571
##  2     0.9874                 0.9874 
##  3     0.3888                 0.3888 
##  4     0.6805                 0.6805 
##  5     0.07781                0.07781
##  6     0.9735                 0.9735 
##  7     0.1755                 0.1755 
##  8     0.1092                 0.1092 
##  9     0.7158                 0.7158 
## 10     0.04708                0.04708
## # … with 20 more rows
…
