8.2 Visualizing association between two categorical variables | Tutorials for BIOL202: Introduction to Biostatistics
…
Egg removal

0.5

0.5

8.2.2 Constructing a grouped bar graph

To construct a grouped bar graph, we first need wrangle (reformat) the data to be in the form of a frequency table.

Let’s revisit what the bird.malaria tibble looks like:

bird.malaria

## # A tibble: 65 × 3
##     bird treatment   response
##    <dbl> <chr>       <chr>   
##  1     1 Control     Malaria 
##  2     2 Control     Malaria 
##  3     3 Control     Malaria 
##  4     4 Control     Malaria 
##  5     5 Control     Malaria 
##  6     6 Control     Malaria 
##  7     7 Control     Malaria 
##  8     8 Egg removal Malaria 
##  9     9 Egg removal Malaria 
## 10    10 Egg removal Malaria 
## # … with 55 more rows
…
